In-class_Ex07 – ISSS608-VAA
…
Rows: 144 Columns: 34
── Column specification ────────────────────────────────────────────────────────
Delimiter: ","
chr  (1): Month-Year
dbl (33): Republic of South Africa, Canada, USA, Bangladesh, Brunei, China, ...

ℹ Use `spec()` to retrieve the full column specification for this data.
ℹ Specify the column types or set `show_col_types = FALSE` to quiet this message.

ts_data$`Month-Year` <- dmy(
  ts_data$`Month-Year`)

ts_data

# A tibble: 144 × 34
   `Month-Year` `Republic of South Africa` Canada   USA Bangladesh Brunei China
   <date>                            <dbl>  <dbl> <dbl>      <dbl>  <dbl> <dbl>
 1 2008-01-01                         3680   6972 31155       6786   3729 79599
 2 2008-02-01                         1662   6056 27738       6314   3070 82074
 3 2008-03-01                         3394   6220 31349       7502   4805 72546
 4 2008-04-01                         3337   4764 26376       7333   3096 76112
 5 2008-05-01                         2089   4460 26788       7988   3586 64808
 6 2008-06-01                         2515   3888 29725       8301   5284 55238
 7 2008-07-01                         2919   5313 33183       9004   4070 80747
 8 2008-08-01                         2471   4519 27427       7913   4183 66625
 9 2008-09-01                         2492   3421 21588       7549   3160 52649
10 2008-10-01                         3023   4756 25112       7527   2983 54423
# ℹ 134 more rows
# ℹ 27 more variables: `Hong Kong SAR (China)` <dbl>, India <dbl>,
#   Indonesia <dbl>, Japan <dbl>, `South Korea` <dbl>, Kuwait <dbl>,
#   Malaysia <dbl>, Myanmar <dbl>, Pakistan <dbl>, Philippines <dbl>,
#   `Saudi Arabia` <dbl>, `Sri Lanka` <dbl>, Taiwan <dbl>, Thailand <dbl>,
#   `United Arab Emirates` <dbl>, Vietnam <dbl>, `Belgium & Luxembourg` <dbl>,
#   Finland <dbl>, France <dbl>, Germany <dbl>, Italy <dbl>, …
…
ts_tsibble <- ts_data %>%
  mutate(Month = yearmonth(`Month-Year`)) %>%
  as_tsibble(index = `Month`)

ts_tsibble

# A tsibble: 144 x 35 [1M]
   `Month-Year` `Republic of South Africa` Canada   USA Bangladesh Brunei China
   <date>                            <dbl>  <dbl> <dbl>      <dbl>  <dbl> <dbl>
 1 2008-01-01                         3680   6972 31155       6786   3729 79599
 2 2008-02-01                         1662   6056 27738       6314   3070 82074
 3 2008-03-01                         3394   6220 31349       7502   4805 72546
 4 2008-04-01                         3337   4764 26376       7333   3096 76112
 5 2008-05-01                         2089   4460 26788       7988   3586 64808
 6 2008-06-01                         2515   3888 29725       8301   5284 55238
 7 2008-07-01                         2919   5313 33183       9004   4070 80747
 8 2008-08-01                         2471   4519 27427       7913   4183 66625
 9 2008-09-01                         2492   3421 21588       7549   3160 52649
10 2008-10-01                         3023   4756 25112       7527   2983 54423
# ℹ 134 more rows
# ℹ 28 more variables: `Hong Kong SAR (China)` <dbl>, India <dbl>,
#   Indonesia <dbl>, Japan <dbl>, `South Korea` <dbl>, Kuwait <dbl>,
#   Malaysia <dbl>, Myanmar <dbl>, Pakistan <dbl>, Philippines <dbl>,
#   `Saudi Arabia` <dbl>, `Sri Lanka` <dbl>, Taiwan <dbl>, Thailand <dbl>,
#   `United Arab Emirates` <dbl>, Vietnam <dbl>, `Belgium & Luxembourg` <dbl>,
#   Finland <dbl>, France <dbl>, Germany <dbl>, Italy <dbl>, …
…
19.7.6 The model coefficient

tidy() of fabletools is be used to extract model coefficients from a mable.

fit_ETS %>%
  tidy()

# A tibble: 45 × 4
   Country .model      term      estimate
   <chr>   <chr>       <chr>        <dbl>
 1 Vietnam SES         alpha     1.00    
 2 Vietnam SES         l[0]  10313.      
 3 Vietnam Holt        alpha     1.00    
 4 Vietnam Holt        beta      0.000100
 5 Vietnam Holt        l[0]  13673.      
 6 Vietnam Holt        b[0]    526.      
 7 Vietnam damped Holt alpha     1.00    
 8 Vietnam damped Holt beta      0.000110
 9 Vietnam damped Holt phi       0.978   
10 Vietnam damped Holt l[0]  13257.      
# ℹ 35 more rows
…
19.8.10 Extracintg fitted and residual values

The fitted values and residuals from a model can obtained using fitted() and residuals() respectively. Additionally, the augment() function may be more convenient, which provides the original data along with both fitted values and their residuals.

ASEAN_fit %>%
  augment()

# A tsibble: 1,320 x 7 [1M]
# Key:       Country, .model [10]
   Country   .model     Month Arrivals .fitted  .resid  .innov
   <chr>     <chr>      <mth>    <dbl>   <dbl>   <dbl>   <dbl>
 1 Indonesia ets     2008 1月    62683  56534.   6149.  0.109 
 2 Indonesia ets     2008 2月    47834  46417.   1417.  0.0305
 3 Indonesia ets     2008 3月    64688  62660.   2028.  0.0324
 4 Indonesia ets     2008 4月    58074  61045.  -2971. -0.0487
 5 Indonesia ets     2008 5月    57089  62280.  -5191. -0.0833
 6 Indonesia ets     2008 6月    70118  75791.  -5673. -0.0749
 7 Indonesia ets     2008 7月    73805  78691.  -4886. -0.0621
 8 Indonesia ets     2008 8月    58015  61910.  -3895. -0.0629
 9 Indonesia ets     2008 9月    63730  74518. -10788. -0.145 
10 Indonesia ets    2008 10月    71206  67869.   3337.  0.0492
# ℹ 1,310 more rows
…
